{
    "mockDirectory": "./mock",
    "quiet": false,
    "port": "8000",
    "latency": 50,
    "logRequestHeaders": false,
    "webServices": {
        "debitCard/checkFlagsTdd": {
            "latency": 25,
            "verbs": [
                "post"
            ],
            "switch": [
                "clientNumber"
            ],
            "responses": {
                "post": {
                    "httpStatus": 400,
                    "mockFile": "debitCard-checkFlagsTdd-POST/bad_request.json"
                }
            },
            "switchResponses": {
                "$clientNumber1234": {
                    "httpStatus": 200,
                    "mockFile": "debitCard-checkFlagsTdd-POST/ok.json"
                },
                "$checkAllTddResponseBean.contract401$checkAllTddResponseBean.item123412341234123412$checkAllBean.statusTddSActivated": {
                    "httpStatus": 401,
                    "mockFile": "debitCard-checkFlagsTdd-POST/autorizacion_badRequest.json"
                },
                "$checkAllTddResponseBean.contract402$checkAllTddResponseBean.item123412341234123412$checkAllBean.statusTddSActivated": {
                    "httpStatus": 404,
                    "mockFile": "debitCard-checkFlagsTdd-POST/not_found.json"
                },
                "$checkAllTddResponseBean.contract500$checkAllTddResponseBean.item123412341234123412$checkAllBean.statusTddSActivated": {
                    "httpStatus": 500,
                    "mockFile": "debitCard-checkFlagsTdd-POST/internal_server_error.json"
                }
            }
        },        
        "debitCard/queryPinTdd": {
            "latency": 25,
            "verbs": [
                "get"
            ],
            "switch": [],
            "responses": {
                "get": {
                    "httpStatus": 400,
                    "mockFile": "debitCard-checkFlagsTdd-GET/error400.json"
                }
            },
            "switchResponses": {
                "folio098-201908131017594500": {
                    "httpStatus": 200,
                    "mockFile": "debitCard-checkFlagsTdd-folio-GET/ok.json"
                },
                "folioABC": {
                    "httpStatus": 400,
                    "mockFile": "debitCard-checkFlagsTdd-folio-GET/error400.json"
                },
                "folionf": {
                    "httpStatus": 401,
                    "mockFile": "debitCard-checkFlagsTdd-folio-GET/error401.json"
                },
                "foliobad": {
                    "httpStatus": 404,
                    "mockFile": "debitCard-checkFlagsTdd-folio-GET/error404.json"
                },
                "folionull": {
                    "httpStatus": 500,
                    "mockFile": "debitCard-checkFlagsTdd-folio-GET/error500.json"
                }
            }
        },        
        "debitCard/activateTdd": {
            "latency": 25,
            "verbs": [
                "post"
            ],
            "switch": [
                "option",
                "decimal"
            ],
            "responses": {
                "post": {
                    "httpStatus": 400,
                    "mockFile": "debitCard-activateTdd-POST/bad_request.json"
                }
            },
            "switchResponses": {
                "idEstatus1fechaInicio10%2F09%2F2021fechaFin25%2F09%2F2021": {
                    "httpStatus": 200,
                    "mockFile": "debitCard-activateTdd-POST/ok.json"
                },
                "idEstatusbadfechaInicio10%2F09%2F2021fechaFin25%2F09%2F2021": {
                    "httpStatus": 401,
                    "mockFile": "debitCard-activateTdd-POST/autorizacion_badRequest.json"
                },
                "idEstatusnffechaInicio10%2F09%2F2021fechaFin25%2F09%2F2021": {
                    "httpStatus": 404,
                    "mockFile": "debitCard-activateTdd-POST/not_found.json"
                },
                "idEstatusnullfechaInicio10%2F09%2F2021fechaFin25%2F09%2F2021": {
                    "httpStatus": 500,
                    "mockFile": "debitCard-activateTdd-POST/internal_server_error.json"
                }
            }
        }
    }
}
